Econometrics III
…
---

## Setup - Recession data

```r
recession_usa_df <- recession_usa_df %>% 
  full_join(tibble(date = seq.Date(as.Date("1857-01-01"), as.Date("2021-01-01"), by = "quarter"))) %>% 
  arrange(date) %>% 
  mutate(recession = ifelse(is.na(recession), FALSE, TRUE))

recession_usa_df
```

```
## # A tibble: 657 × 2
##    date       recession
##    <date>     <lgl>    
##  1 1857-01-01 FALSE    
##  2 1857-04-01 TRUE     
##  3 1857-07-01 TRUE     
##  4 1857-10-01 TRUE     
##  5 1858-01-01 TRUE     
##  6 1858-04-01 TRUE     
##  7 1858-07-01 TRUE     
##  8 1858-10-01 TRUE     
##  9 1859-01-01 FALSE    
## 10 1859-04-01 FALSE    
## # … with 647 more rows
```
…
