Econometrics I
…
# Bivariate OLS

---

## Basics of OLS

### Amsterdam house data

```r
amsterdam_house_df <- read_csv("https://storage.googleapis.com/kagglesdsdata/datasets/1549462/2554162/HousingPrices-Amsterdam-August-2021.csv?X-Goog-Algorithm=GOOG4-RSA-SHA256&X-Goog-Credential=gcp-kaggle-com%40kaggle-161607.iam.gserviceaccount.com%2F20221010%2Fauto%2Fstorage%2Fgoog4_request&X-Goog-Date=20221010T111010Z&X-Goog-Expires=259200&X-Goog-SignedHeaders=host&X-Goog-Signature=25efe3e6ca089c3f3a8be5653d118fe7a0167157a78a1b3e6cd07bdcd549978300bdbf77bbe1a916684a862a9908a103ac94121de3e5b2a5db7c9cc7ab52763ec477cf4954b77bfff8c341b4487c4c7c23c42237218110be4de7b4ed8f5c5241463dc05eae12ae104cd26e283f0fa2868b5b6456db67180fa6d1776f28334f3e77321cae6bac52c9548dcce531fcf853696253bf15d67305ffb1d75bf021c092e0a2ac6b88bedfe2ca991f2849aa1b679916e3d0d9506aec9bc39b794348380a0e89510de3fce6a22087f724714e575a14e6c5dfe8e6f040c8fd6ee02a1bc0da3032e4b948a34a8f3b144ae71d3b755fd709b29e2e61ef8bf95c83e8f4443f13", col_select = -1)
```

```
## # A tibble: 924 × 7
##    Address                                Zip      Price  Area  Room   Lon   Lat
##    <chr>                                  <chr>    <dbl> <dbl> <dbl> <dbl> <dbl>
##  1 Blasiusstraat 8 2, Amsterdam           1091 CR 685000    64     3  4.91  52.4
##  2 Kromme Leimuidenstraat 13 H, Amsterdam 1059 EL 475000    60     3  4.85  52.3
##  3 Zaaiersweg 11 A, Amsterdam             1097 SM 850000   109     4  4.94  52.3
##  4 Tenerifestraat 40, Amsterdam           1060 TH 580000   128     6  4.79  52.3
##  5 Winterjanpad 21, Amsterdam             1036 KN 720000   138     5  4.90  52.4
##  6 De Wittenkade 134 I, Amsterdam         1051 AM 450000    53     2  4.88  52.4
##  7 Pruimenstraat 18 B, Amsterdam          1033 KM 450000    87     3  4.90  52.4
##  8 Da Costakade 32 II, Amsterdam          1053 WL 590000    80     2  4.87  52.4
##  9 Postjeskade 41 2, Amsterdam            1058 DG 399000    49     3  4.85  52.4
## 10 Van Ostadestraat 193 H, Amsterdam      1073 TM 300000    33     2  4.90  52.4
## # … with 914 more rows
```
…
```r
sse_df <- crossing(
  b0 = seq(from = 0, to = 1e4, length.out = 100),
  b1 = seq(from = 0, to = 1e4, length.out = 100)
) %>% 
  mutate(
    sse = map2_dbl(b0, b1, sse)
  ) %>% 
  arrange(sse)

sse_df
```

```
## # A tibble: 10,000 × 3
##       b0    b1     sse
##    <dbl> <dbl>   <dbl>
*##  1    0  6869. 8.52e13
##  2  101. 6869. 8.52e13
##  3  202. 6869. 8.52e13
##  4  303. 6869. 8.52e13
##  5  404. 6869. 8.52e13
##  6  505. 6869. 8.52e13
##  7  606. 6869. 8.52e13
##  8  707. 6869. 8.52e13
##  9  808. 6869. 8.52e13
## 10  909. 6869. 8.52e13
## # … with 9,990 more rows
```
…
---

### Amsterdam house data

The tidy method: {broom}

```r
library(broom)
augment(fit)
```

```
## # A tibble: 920 × 9
##    .rownames  Price  Area .fitted   .resid    .hat  .sigma   .cooksd .std.resid
##    <chr>      <dbl> <dbl>   <dbl>    <dbl>   <dbl>   <dbl>     <dbl>      <dbl>
##  1 1         685000    64 371811.  313189. 0.00142 296650. 0.000795       1.06 
##  2 2         475000    60 340141.  134859. 0.00151 296797. 0.000157       0.455
##  3 3         850000   109 728100.  121900. 0.00115 296804. 0.0000971      0.411
##  4 4         580000   128 878533. -298533. 0.00144 296667. 0.000731      -1.01 
##  5 5         720000   138 957708. -237708. 0.00169 296727. 0.000545      -0.802
##  6 6         450000    53 284719.  165281. 0.00170 296781. 0.000264       0.558
##  7 7         450000    87 553914. -103914. 0.00111 296811. 0.0000684     -0.350
##  8 8         590000    80 498492.   91508. 0.00117 296816. 0.0000557      0.309
##  9 9         399000    49 253049.  145951. 0.00182 296792. 0.000221       0.492
## 10 10        300000    33 126368.  173632. 0.00241 296775. 0.000414       0.586
## # … with 910 more rows
```
…
## Type I error in multivariate model

Let's create a function for a new DGP wtih two regressors.

```r
dgp_multi <- function(b0 = 100, b1 = 0, b2 = 0, n = 100) {
    tibble(x1 = rnorm(n, sd = .8), x2 = rnorm(n, sd = 5)) %>% 
    mutate(y = b0 + b1 * x1 + b2 * x2 + rnorm(n))
  }

dgp_multi()
```

```
## # A tibble: 100 × 3
##         x1      x2     y
##      <dbl>   <dbl> <dbl>
##  1  0.0552  0.985   97.9
##  2  1.17   -4.73    99.6
##  3 -0.213   0.345  100. 
##  4 -0.790  -1.27    99.2
##  5 -1.54    2.48    99.9
##  6  1.05    1.48    98.4
##  7 -0.753  -6.74    99.8
##  8 -0.248  -3.25   100. 
##  9 -0.405  -4.55    98.9
## 10 -0.358   0.0503 100. 
## # … with 90 more rows
```
…
