Grammar of Graphics
…
```
## # A tibble: 1,255 × 8
##    tickers time        Open  High   Low Close    Volume Adjusted
##    <chr>   <date>     <dbl> <dbl> <dbl> <dbl>     <dbl>    <dbl>
##  1 AAPL    2021-11-15  150.  152.  149.  150   59222800     149.
##  2 AAPL    2021-11-16  150.  151.  149.  151   59256200     150.
##  3 AAPL    2021-11-17  151   155   151.  153.  88807000     153.
##  4 AAPL    2021-11-18  154.  159.  153.  158. 137827700     157.
##  5 AAPL    2021-11-19  158.  161.  157.  161. 117305600     160.
##  6 AAPL    2021-11-22  162.  166.  161   161. 117467900     160.
##  7 AAPL    2021-11-23  161.  162.  159.  161.  96041900     160.
##  8 AAPL    2021-11-24  161.  162.  160.  162.  69463600     161.
##  9 AAPL    2021-11-26  160.  160.  156.  157.  76959800     156.
## 10 AAPL    2021-11-29  159.  161.  159.  160.  88748200     159.
## # … with 1,245 more rows
```
