Inferential statistics II.
…
snp_df <- download_yahoo("https://finance.yahoo.com/quote/%5EGSPC/history?period1=-1325635200&period2=1664841600&interval=1d&filter=history&frequency=1d&includeAdjustedClose=true")

nasdaq_df <- download_yahoo("https://finance.yahoo.com/quote/%5EIXIC/history?period1=34560000&period2=1664841600&interval=1d&filter=history&frequency=1d&includeAdjustedClose=true")

snp_df
```

```
## # A tibble: 23,803 × 7
##    Date        Open  High   Low Close `Adj Close`     Volume
##    <date>     <dbl> <dbl> <dbl> <dbl>       <dbl>      <dbl>
##  1 2022-10-03 3610. 3698. 3605. 3678.       3678. 4806680000
##  2 2022-09-30 3633. 3671. 3584. 3586.       3586. 5645360000
##  3 2022-09-29 3687. 3687. 3610. 3640.       3640. 4681810000
##  4 2022-09-28 3652. 3737. 3641. 3719.       3719. 4684850000
##  5 2022-09-27 3686. 3718. 3623. 3647.       3647. 4577740000
##  6 2022-09-26 3683. 3716. 3645. 3655.       3655. 4886140000
##  7 2022-09-23 3727. 3727. 3647. 3693.       3693. 5144270000
##  8 2022-09-22 3782. 3791. 3749. 3758.       3758. 4284600000
##  9 2022-09-21 3871. 3907. 3789. 3790.       3790. 4078330000
## 10 2022-09-20 3875. 3876. 3828. 3856.       3856. 4058050000
## # … with 23,793 more rows
```
…
#### Step 1. Join the two tables

Our goal is to join the two tables by the Date column. For this purpose we should rename the `Adj Close` column to the name of the index. And we are interested only in the days when values for both indexes are available.

```r
inner_join(
  x = select(snp_df, Date, snp = `Adj Close`),
  y = select(nasdaq_df, Date, nasdaq = `Adj Close`),
  by = "Date"
)
```

```
## # A tibble: 13,029 × 3
##    Date         snp nasdaq
##    <date>     <dbl>  <dbl>
##  1 2022-10-03 3678. 10815.
##  2 2022-09-30 3586. 10576.
##  3 2022-09-29 3640. 10738.
##  4 2022-09-28 3719. 11052.
##  5 2022-09-27 3647. 10830.
##  6 2022-09-26 3655. 10803.
##  7 2022-09-23 3693. 10868.
##  8 2022-09-22 3758. 11067.
##  9 2022-09-21 3790. 11220.
## 10 2022-09-20 3856. 11425.
## # … with 13,019 more rows
```
…
```r
stock_index_ret_df <- inner_join(
  x = select(snp_df, Date, snp = `Adj Close`),
  y = select(nasdaq_df, Date, nasdaq = `Adj Close`),
  by = "Date"
) %>% 
  mutate_at(-1, ~ . / lag(.) - 1) %>% # % increase to previous
  drop_na() # no obs in the first row

stock_index_ret_df
```

```
## # A tibble: 13,028 × 3
##    Date            snp   nasdaq
##    <date>        <dbl>    <dbl>
##  1 2022-09-30 -0.0252  -0.0222 
##  2 2022-09-29  0.0153   0.0153 
##  3 2022-09-28  0.0216   0.0293 
##  4 2022-09-27 -0.0193  -0.0201 
##  5 2022-09-26  0.00212 -0.00245
##  6 2022-09-23  0.0104   0.00602
##  7 2022-09-22  0.0175   0.0183 
##  8 2022-09-21  0.00850  0.0139 
##  9 2022-09-20  0.0174   0.0183 
## 10 2022-09-19  0.0114   0.00963
## # … with 13,018 more rows
```
…
