Inferential statistics I.
…
# Motivational example

- Let's say our data generation process can generate any number between 1 and 5, it will give 2 numbers at a time.

- Possible pairs: (1, 1), (1, 2), (1, 3), (1, 4), (1, 5), (2, 1), ...

- Let's check it in R!

```r
crossing(x1 = 1:5, x2 = 1:5)
```

```
## # A tibble: 25 × 2
##       x1    x2
##    <int> <int>
##  1     1     1
##  2     1     2
##  3     1     3
##  4     1     4
##  5     1     5
##  6     2     1
##  7     2     2
##  8     2     3
##  9     2     4
## 10     2     5
## # … with 15 more rows
```

---

# Motivational example

```r
crossing(x1 = 1:5, x2 = 1:5) %>% 
  * mutate(mu = (x1 + x2) / 2)
```

.pull-left[

```
## # A tibble: 25 × 3
##       x1    x2    mu
##    <int> <int> <dbl>
##  1     1     1   1  
##  2     1     2   1.5
##  3     1     3   2  
##  4     1     4   2.5
##  5     1     5   3  
##  6     2     1   1.5
##  7     2     2   2  
##  8     2     3   2.5
##  9     2     4   3  
## 10     2     5   3.5
## # … with 15 more rows
```
…
