Tidyverse II.
…
```r
class(list_of_data)
```

```
## [1] "list"
```

```r
list_of_data
```

```
## [[1]]
## # A tibble: 998 × 26
##    Cites Authors         Title  Year Source Publisher ArticleURL CitesURL GSRank
##    <dbl> <chr>           <chr> <dbl> <chr>  <chr>     <chr>      <chr>     <dbl>
##  1  3295 GP Compo, JS W… The …  2011 Quart… Wiley On… https://r… https:/…    875
##  2   885 E Nakamura, J … High…  2018 The Q… academic… https://a… https:/…    364
##  3  2708 E Castronova    Synt…  2008 Synth… degruyte… https://w… https:/…    498
##  4   660 RC Cornes, G v… An e…  2018 Journ… Wiley On… https://a… https:/…    261
##  5   164 MC Medeiros, G… Fore…  2021 Journ… Taylor &… https://w… https:/…    122
##  6  5219 GW Schwert      Why …  1989 The j… Wiley On… https://o… https:/…    560
##  7  1701 PR Hansen, A L… The …  2011 Econo… Wiley On… https://o… https:/…    565
##  8  2573 LJ Christiano,… The …  2003 inter… Wiley On… https://o… https:/…    586
##  9  4813 F Black         Noise  1986 The j… Wiley On… https://o… https:/…    333
## 10   220 C Binder        Coro…  2020 Revie… direct.m… https://d… https:/…    504
## # … with 988 more rows, and 17 more variables: QueryDate <dttm>, Type <chr>,
## #   DOI <chr>, ISSN <lgl>, CitationURL <lgl>, Volume <lgl>, Issue <lgl>,
## #   StartPage <lgl>, EndPage <lgl>, ECC <dbl>, CitesPerYear <dbl>,
## #   CitesPerAuthor <dbl>, AuthorCount <dbl>, Age <dbl>, Abstract <chr>,
## #   FullTextURL <chr>, RelatedURL <chr>
## 
## [[2]]
## # A tibble: 980 × 26
##    Cites Authors         Title  Year Source Publisher ArticleURL CitesURL GSRank
##    <dbl> <chr>           <chr> <dbl> <chr>  <chr>     <chr>      <chr>     <dbl>
##  1 30964 RF Engle        Auto…  1982 Econo… JSTOR     https://w… https:/…    872
##  2  2592 GW Evans, S Ho… Lear…  2012 Learn… degruyte… https://w… https:/…    683
##  3   250 O Coibion, Y G… Mone…  2022 Journ… journals… https://w… https:/…     22
##  4   164 MC Medeiros, G… Fore…  2021 Journ… Taylor &… https://w… https:/…    847
##  5   324 P Bordalo, N G… Over…  2020 Ameri… aeaweb.o… https://w… https:/…    518
##  6   958 U Malmendier, … Lear…  2016 The Q… academic… https://a… https:/…    114
##  7   951 O Coibion, Y G… Info…  2015 Ameri… aeaweb.o… https://w… https:/…    444
##  8   247 O Coibion, Y G… Infl…  2020 Journ… Elsevier  https://w… https:/…     28
##  9  2823 LEO Svensson    Infl…  1997 Europ… Elsevier  https://w… https:/…     38
## 10   110 AM Dietrich, K… News…  2022 Journ… Elsevier  https://w… https:/…    667
## # … with 970 more rows, and 17 more variables: QueryDate <dttm>, Type <chr>,
## #   DOI <chr>, ISSN <lgl>, CitationURL <lgl>, Volume <lgl>, Issue <lgl>,
## #   StartPage <lgl>, EndPage <lgl>, ECC <dbl>, CitesPerYear <dbl>,
## #   CitesPerAuthor <dbl>, AuthorCount <dbl>, Age <dbl>, Abstract <chr>,
## #   FullTextURL <chr>, RelatedURL <chr>
```
…
