Introduction to the .fullprice[Multi]Tidyverse
…
# The pipe - an example

Lets return to the `fertility_df` data frame.

```r
fertility_df <- read_csv("https://stats.oecd.org/sdmx-json/data/DP_LIVE/.FERTILITY.../OECD?contentType=csv&detail=code&separator=comma&csv-lang=en")
```

```r
fertility_df
```

```
## # A tibble: 3,239 × 8
##    LOCATION INDICATOR SUBJECT MEASURE   FREQUENCY  TIME Value `Flag Codes`
##    <chr>    <chr>     <chr>   <chr>     <chr>     <dbl> <dbl> <lgl>       
##  1 AUS      FERTILITY TOT     CHD_WOMAN A          1960  3.45 NA          
##  2 AUS      FERTILITY TOT     CHD_WOMAN A          1961  3.55 NA          
##  3 AUS      FERTILITY TOT     CHD_WOMAN A          1962  3.43 NA          
##  4 AUS      FERTILITY TOT     CHD_WOMAN A          1963  3.34 NA          
##  5 AUS      FERTILITY TOT     CHD_WOMAN A          1964  3.15 NA          
##  6 AUS      FERTILITY TOT     CHD_WOMAN A          1965  2.97 NA          
##  7 AUS      FERTILITY TOT     CHD_WOMAN A          1966  2.89 NA          
##  8 AUS      FERTILITY TOT     CHD_WOMAN A          1967  2.85 NA          
##  9 AUS      FERTILITY TOT     CHD_WOMAN A          1968  2.89 NA          
## 10 AUS      FERTILITY TOT     CHD_WOMAN A          1969  2.89 NA          
## # … with 3,229 more rows
```
…
# The pipe - an example

```r
filter(.data = fertility_df, Value >= 2.1)
```

The following is identical with pipe. (The outcome before the `%>%` is the first unspecified input of the next expression)

```r
fertility_df %>% 
  filter(Value >= 2.1)
```

```
## # A tibble: 1,374 × 8
##    LOCATION INDICATOR SUBJECT MEASURE   FREQUENCY  TIME Value `Flag Codes`
##    <chr>    <chr>     <chr>   <chr>     <chr>     <dbl> <dbl> <lgl>       
##  1 AUS      FERTILITY TOT     CHD_WOMAN A          1960  3.45 NA          
##  2 AUS      FERTILITY TOT     CHD_WOMAN A          1961  3.55 NA          
##  3 AUS      FERTILITY TOT     CHD_WOMAN A          1962  3.43 NA          
##  4 AUS      FERTILITY TOT     CHD_WOMAN A          1963  3.34 NA          
##  5 AUS      FERTILITY TOT     CHD_WOMAN A          1964  3.15 NA          
##  6 AUS      FERTILITY TOT     CHD_WOMAN A          1965  2.97 NA          
##  7 AUS      FERTILITY TOT     CHD_WOMAN A          1966  2.89 NA          
##  8 AUS      FERTILITY TOT     CHD_WOMAN A          1967  2.85 NA          
##  9 AUS      FERTILITY TOT     CHD_WOMAN A          1968  2.89 NA          
## 10 AUS      FERTILITY TOT     CHD_WOMAN A          1969  2.89 NA          
## # … with 1,364 more rows
```
…
#### `#1 Assigning a new data frame

```r
fertility_df2 <- filter(fertility_df, Value >= 2.1)
count(fertility_df2, TIME)
```

#### `#2 Unreadable nesting

```r
count(filter(fertility_df, Value >= 2.1), TIME)
```

```
## # A tibble: 61 × 2
##     TIME     n
##    <dbl> <int>
##  1  1960    47
##  2  1961    47
##  3  1962    47
##  4  1963    47
##  5  1964    47
##  6  1965    47
##  7  1966    45
##  8  1967    44
##  9  1968    44
## 10  1969    42
## # … with 51 more rows
```

---

# The pipe - an example

With the `%>%`:

```r
fertility_df %>% 
  filter(Value >= 2.1) %>% # "... and after the filtering ..."
  count(TIME)
```

```
## # A tibble: 61 × 2
##     TIME     n
##    <dbl> <int>
##  1  1960    47
##  2  1961    47
##  3  1962    47
##  4  1963    47
##  5  1964    47
##  6  1965    47
##  7  1966    45
##  8  1967    44
##  9  1968    44
## 10  1969    42
## # … with 51 more rows
```
…
